  ______   _____     ____    _   _   _______                _____    _____
 |  ____| |  __ \   / __ \  | \ | | |__   __|       /\     |  __ \  |_   _|
 | |__    | |__) | | |  | | |  \| |    | |         /  \    | |__) |   | |
 |  __|   |  _  /  | |  | | | . ` |    | |        / /\ \   |  ___/    | |
 | |      | | \ \  | |__| | | |\  |    | |       / ____ \  | |       _| |_
 |_|      |_|  \_\  \____/  |_| \_|    |_|      /_/    \_\ |_|      |_____|
